3.711161805016038429e+00,-2.323051306483728595e+00,7.408007751315430767e-01,1.285126286066052614e+00,-4.818019033747063418e+00
-6.411997602053309819e-01,2.197261692012197898e-02,2.326762787026614987e+00,3.490259637038835905e+00,-2.100585758120647739e-01
2.819153278417118713e+00,2.118151475388940774e+00,-3.681332252496721580e+00,-3.103092594285254968e+00,4.774875767414672012e+00
-2.447109921298755708e+00,1.087857531594430327e+00,3.733078829285593869e+00,1.356115537100262891e+00,3.284028835329737106e+00
-1.683546514663794014e-01,-2.912160956919405130e+00,-2.742325589427325738e+00,-1.182770201620275685e-01,3.592828663955243584e+00
-2.538004799315817017e+00,4.210732109732877149e+00,3.497457080608731061e+00,4.440172825404660628e+00,1.879709225524242022e+00
-3.274943577687440488e+00,-8.013539373362732476e-01,4.438788465012390105e+00,3.484516521181490134e+00,-3.298346870432264932e+00
-4.496531168556421321e+00,1.779456216860156204e+00,3.569323185739740723e+00,2.306679205611215089e+00,-2.191710148584422591e+00
5.644224117759408799e-01,-4.294389008382870188e+00,3.003740134268806372e-01,3.622779860450789258e+00,-1.233662266065923774e+00
3.678853196964738004e+00,-2.740698752280287032e+00,1.984190463799802018e+00,4.478709396371538531e+00,2.876499490010340665e+00
-3.271059475549036311e+00,2.262603863700882734e+00,2.274187173453863231e+00,-1.753342556134340757e+00,-2.810449062982325330e-01
-6.971034052386659852e-01,-2.410167137937424542e-02,-3.796920145621633935e-01,-4.667744109208079806e+00,4.327698274068573880e+00
-1.850527703922795197e+00,2.916431192821786311e+00,-3.631431655141206249e+00,-1.323023971355622663e+00,3.107927313643816802e+00
-1.209913811376245540e+00,2.910923277611860094e+00,-4.683717350146841873e+00,-2.008148013817432354e+00,-2.336338358032534757e-01
-4.679473745332941803e+00,-2.131954793670458592e+00,2.598301528297931817e+00,1.837832547465977129e+00,2.902011320253631510e+00
2.993029776641021655e+00,-9.977253284207243667e-01,5.304266931738466084e-01,-1.930718157849376837e+00,-1.253162090625278502e+00
-3.331465786156346809e-01,-3.769805902592131552e+00,-3.796532978221364374e+00,7.967990690677986265e-01,-4.722109082754005982e+00
-1.617184842589908023e+00,1.377961103888725169e+00,-3.263837906190095950e+00,1.898644995330536211e+00,3.898712821634388703e+00
7.511840799474605035e-01,-2.554683237618167180e+00,1.891305592313489825e+00,-5.405807326591016704e-01,-2.413063407061943888e+00
1.443760639893967301e+00,-3.284112704146412653e+00,-4.442760050175815323e+00,4.480886120765356750e+00,-2.448930232645019078e+00
-9.262514381507322980e-01,2.425322324583403244e-01,5.134263009006208023e-01,-1.203449325413756821e+00,-9.549674324289885163e-01
2.065715934738392434e-01,-3.294239101677375103e+00,3.875110740687084387e-01,1.384325364206091535e+00,-3.234669378712534460e+00
1.408039879590745613e+00,-1.948581731970215003e+00,3.984895297735137731e+00,-1.472300378453242686e+00,-2.750676770780505542e+00
-2.907946894426376439e+00,-3.573238351606538021e+00,-2.267972275613423516e+00,-3.107106911338633815e+00,2.439827145987164769e+00
-1.192052540034401531e+00,4.219409982228143008e+00,4.358948044324726823e+00,-1.670848451886088881e+00,-2.697869628039404333e-01
1.041183095591029506e+00,-3.555898682752140161e+00,1.576770614967824002e+00,-4.640815804459741400e+00,9.988527463694225617e-01
9.015409799327560592e-01,-1.920143930075575156e+00,-6.731278953539323595e-01,-4.737778437803115139e+00,-4.229403505385551654e-01
4.028413538082233458e+00,-1.892834258502371636e+00,-9.476030930692624921e-01,3.156073987916096613e+00,1.967312286243164898e+00
4.071630368383985399e+00,-2.082806779902393046e-01,4.783713226929741325e+00,-4.429852621871244622e+00,4.832254575150585651e+00
1.856579809046742469e+00,-4.767113561306512537e+00,1.674091613192319805e+00,1.592249611639112494e+00,2.740587067988418113e+00
